…
``` r
modelr::add_residuals(nyc_airbnb, fit) %>% 
  ggplot(aes(x = stars, y = resid)) +
  geom_point() + ylim(-500, 500)
```

<img src="Linera_regression_files/figure-gfm/unnamed-chunk-8-1.png" width="90%" />

add some predictions

``` r
modelr::add_predictions(nyc_airbnb, fit)
```

    ## # A tibble: 40,492 x 6
    ##    price stars boro  neighborhood room_type        pred
    ##    <dbl> <dbl> <fct> <chr>        <fct>           <dbl>
    ##  1    99   5   Bronx City Island  Private room     89.5
    ##  2   200  NA   Bronx City Island  Private room     NA  
    ##  3   300  NA   Bronx City Island  Entire home/apt  NA  
    ##  4   125   5   Bronx City Island  Entire home/apt  89.5
    ##  5    69   5   Bronx City Island  Private room     89.5
    ##  6   125   5   Bronx City Island  Entire home/apt  89.5
    ##  7    85   5   Bronx City Island  Entire home/apt  89.5
    ##  8    39   4.5 Bronx Allerton     Private room     73.5
    ##  9    95   5   Bronx Allerton     Entire home/apt  89.5
    ## 10   125   4.5 Bronx Allerton     Entire home/apt  73.5
    ## # … with 40,482 more rows
…
Therefore, the lesser the `RMSE` the better the model since errors are
minimized. Always choose the model that test better on the `Test`
dataset. Thus, here the `smooth_mod` is doing better.

## Cross Validation using `Modelr`

`cross_mc` splits the dataframe for us\!\!

``` r
cv_df = 
  crossv_mc(nonlin_df, 100)
cv_df
```

    ## # A tibble: 100 x 3
    ##    train      test       .id  
    ##    <list>     <list>     <chr>
    ##  1 <resample> <resample> 001  
    ##  2 <resample> <resample> 002  
    ##  3 <resample> <resample> 003  
    ##  4 <resample> <resample> 004  
    ##  5 <resample> <resample> 005  
    ##  6 <resample> <resample> 006  
    ##  7 <resample> <resample> 007  
    ##  8 <resample> <resample> 008  
    ##  9 <resample> <resample> 009  
    ## 10 <resample> <resample> 010  
    ## # … with 90 more rows

``` r
cv_df %>% pull(train) %>% .[[1]] %>% as_tibble
```

    ## # A tibble: 79 x 3
    ##       id      x       y
    ##    <int>  <dbl>   <dbl>
    ##  1     1 0.266   1.11  
    ##  2     2 0.372   0.764 
    ##  3     3 0.573   0.358 
    ##  4     4 0.908  -3.04  
    ##  5     6 0.898  -1.99  
    ##  6     7 0.945  -3.27  
    ##  7     8 0.661  -0.615 
    ##  8     9 0.629   0.0878
    ##  9    10 0.0618  0.392 
    ## 10    11 0.206   1.63  
    ## # … with 69 more rows
…
## How can i bootstrap

write a function to draw a bootstrap sample based on the dataframe.

Here, subjects are not put back in the original population.

``` r
sim_df_nonconst %>% 
  sample_frac(size = 1) %>% 
  arrange(x)
```

    ## # A tibble: 250 x 3
    ##        x   error       y
    ##    <dbl>   <dbl>   <dbl>
    ##  1 -2.15  0.263  -4.18  
    ##  2 -1.42  0.111  -2.15  
    ##  3 -1.38 -1.71   -3.86  
    ##  4 -1.26  1.30   -0.493 
    ##  5 -1.26  1.79    0.0186
    ##  6 -1.17  1.56    0.0643
    ##  7 -1.16  0.0502 -1.42  
    ##  8 -1.14 -0.688  -2.10  
    ##  9 -1.13  0.377  -1.02  
    ## 10 -1.05 -1.62   -2.75  
    ## # … with 240 more rows

here we sampling but subjects are put back in the population. yield
different results.

``` r
sim_df_nonconst %>% 
  sample_frac(size = 1, replace = T) %>% 
  arrange(x)
```

    ## # A tibble: 250 x 3
    ##        x   error       y
    ##    <dbl>   <dbl>   <dbl>
    ##  1 -2.15  0.263  -4.18  
    ##  2 -2.15  0.263  -4.18  
    ##  3 -1.26  1.30   -0.493 
    ##  4 -1.26  1.79    0.0186
    ##  5 -1.16  0.0502 -1.42  
    ##  6 -1.16  0.0502 -1.42  
    ##  7 -1.16  0.0502 -1.42  
    ##  8 -1.14 -0.688  -2.10  
    ##  9 -1.13  0.377  -1.02  
    ## 10 -1.05 -1.62   -2.75  
    ## # … with 240 more rows
…
